{
  "type": "service_account",
  "project_id": "orange-195015",
  "private_key_id": "d31071c6b263a441ba873c698cd63aff03c1459f",
  "private_key": "-----BEGIN PRIVATE KEY-----\nMIIEvwIBADANBgkqhkiG9w0BAQEFAASCBKkwggSlAgEAAoIBAQCTWZ/6raYNDyXB\n/Wb9ySNBIoD8Rr0rRelJjBsezLlwiHmEUeBlDR0oBVrIZeyDxsSTBApU1SmFMKbX\n3I+D2Z+QG2eyZOAo6BTZ+2zLa3Mw/e40yS1yhURFVtAMlL5GyOWlzAWvVmNkN72T\nm9Ki6W27wyvegXkYxgAPFmJsDK0SVYU8O9saOIEjfbBQHYmd9B8iaowQJWUqWvu6\n0LzbOuFtQE4Z0Eehcl5dgYuAk7DE6pkJ5YKdFFAV6UPjtr0tYHFHURNsZPSjVT1u\nEpP05hPVL7HvwTxcCV3zmFFlqsQ8pgu1P6dwH6W0Wt/18xBtUIQus8yAa6O129tp\nt9150KLjAgMBAAECggEAGFDe/KAxWdBZG8U0fMb3gWUvQfJufzifQdrUEuYX6AEt\nhG96h1J9sEAJ9i4TtL9VaylshwlSO7+GmPK14D1GfqJ3H1JUR4vc/QfnsT3/GWOe\nLqnQTSi+1m54EMtvBwFaHF0pxwCLkFs+dqBtRyMcT7Lqh2J4WGU8V0ELZudEnFSu\ndHC9bprAU7Knx6omrw3ZhvFkv1UoXOPft+EN9tVpjvJp/HKHRZ/Zda2wsurJRnEd\nsXn75Uofa6OoIRVuGRF3LVE5haaUvGUk7d+Mq36+t5DTmCQtRF9P1SkoBk/3RC0U\n6lL/sjb420CbUZ3Pfpa8ckVYQKkJygAEPSCRRKEgYQKBgQDGyR3KMMVotSikD94f\nPUQ9x7B/gfv2sJ7F7R8RPNMaKNUJUtL3WaruFvE0tl04PMvpqFxZggx3PhJRlzt9\ncUAhBIRMYaQiLNawc4SDRO3sR2Ch7+JwjlNTk4gKw0iX2s0+yHVsKK9xiPd/5DLL\n7fv1GWV3Z6rqK8tirKNgzKFuUQKBgQC9wqWVplalDHo5Mb03va1VcOh/oC12eaKJ\nXgtKtopsVs/Y+8+EZmHvosglWc/sm6mnP3UaQevf/1IcfH8OQERhzmCU+yzk2w0E\niieOwdS86NV/Rt1RoBt9JNbkuH4FLhIO3L5A7muQB9jpPIt6n4Rllo278kHWp01r\nGc2hgO8s8wKBgQC24Gcrj9rNDXyqEn8CtlaFj6RsaaTnum0XIaKnNRHwywfSYAP9\n0txR1YFqQStZhXUDLQRoxB+7w7sOnNb5/KpGteUQb/OUDTQleOC78zn/WVspH4tu\niUFXbi6F2Ep8iaqwy7JbIsLk7GDlo4an3fUh849JXnH6pPeje7eCYj9RQQKBgQCg\ndgoDI6c85fIsjwzMJ858438W/OG0v2Jb+nRd90HSHw6fE0AFW3YRZ3sLaojSMUci\nsBxb2caVoZdTk0r1SA8LDbLKCCOMWlcFsbWFmA5GuDRg7hGURmk4R4CX5BJcWvrW\nKn+O9I1sO9aGU7Y2ONGB/e9YMKDP3KUwnZ8upJKbVQKBgQCkpbET3Jk8RiwIyLIk\nfMZeGyaTtnTEWMumQyC7bll6DZ8mXj2av5S1e6uuvWyKhG86OrV27kApKMx3A9UU\nOHb29uzexn7ZIet2U5Epm+2iUzZq4PJRJ+OslfSTAAYFctInAdXRkTwWH5VgdgtJ\nDQ294P8NaT8GztBxe5waDwGh5g==\n-----END PRIVATE KEY-----\n",
  "client_email": "cbox-dashrocks@orange-195015.iam.gserviceaccount.com",
  "client_id": "103146866075306798895",
  "auth_uri": "https://accounts.google.com/o/oauth2/auth",
  "token_uri": "https://oauth2.googleapis.com/token",
  "auth_provider_x509_cert_url": "https://www.googleapis.com/oauth2/v1/certs",
  "client_x509_cert_url": "https://www.googleapis.com/robot/v1/metadata/x509/cbox-dashrocks%40orange-195015.iam.gserviceaccount.com"
}
